﻿Type,Is thermal?,non-emitting thermal?,min_cap_fact,max_cap_fact,efficiency,fuel_co2,fuel_co2_obps_2025,fuel_co2_obps_2030,fixed_o_m,variable_o_m,fuelprice,capitalcost,ramp_rate_percent,ITC support?
biomass,TRUE,TRUE,0.6,0.65,0.25,0,0,0,171106,6.58,2.87,334750.86,1,FALSE
coal_pre2025,TRUE,FALSE,0.4,0.6,0.4,0.81,0.356,0.44,55237,6.12,2.37,301934.43,1,FALSE
coal_ccs_pre2025,TRUE,FALSE,0.4,0.6,0.32,0.1,0,0,81042,14.94,2.37,477697.72,1,FALSE
coal_retire_pre2025,TRUE,FALSE,0.4,0.6,0.4,0.81,0.356,0.44,0,0,0,0,1,FALSE
diesel_pre2025,TRUE,FALSE,0.01,0.02,0.41,0.52,0,0,47853,7.75,11.27,144396.01,1,FALSE
diesel_bio_pre2025,TRUE,FALSE,0.01,0.02,0.41,0.52,0,0,47853,7.75,34.72,144396.01,1,FALSE
diesel_backup_pre2025,TRUE,FALSE,0.01,0.02,0.41,0.52,0,0,47853,7.75,11.27,144396.01,1,FALSE
diesel_retire_pre2025,TRUE,FALSE,0.01,0.02,0.41,0.52,0,0,0,0,0,0,1,FALSE
diesel_bio_post2025,TRUE,FALSE,0.01,0.02,0.41,0.52,0,0,47853,7.75,34.72,144396.01,1,FALSE
diesel_backup_post2025,TRUE,FALSE,0.01,0.02,0.41,0.52,0,0,47853,7.75,11.27,144396.01,1,FALSE
hydro_daily,FALSE,FALSE,,,,0,0,0,115195.75,5,0,190332.92,1,TRUE
hydro_monthly,FALSE,FALSE,,,,0,0,0,16009.37,2,0,339511.81,1,TRUE
hydro_run,FALSE,FALSE,,,,0,0,0,55654.5,1,0,154980.57,1,TRUE
h2blue_CT,TRUE,FALSE,0.08,0.15,0.34,0.03,0,0.03,58000,4.69,15.6,84350.71,1,FALSE
h2green_CT,TRUE,TRUE,0.08,0.15,0.34,0,0,0,58000,4.69,56.4,84350.71,1,FALSE
gasSC_pre2025,TRUE,FALSE,0.08,0.15,0.35,0.52,0.15,0.15,22178,6.4,2.94,93566.22,1,FALSE
gasSC_ccs_pre2025,TRUE,FALSE,0.08,0.15,0.48,0.026,0,0,83200,6.02,2.94,10000000,1,TRUE
gasSC_rng_pre2025,TRUE,FALSE,0.08,0.15,0.35,0.038,0,0,22178,7.94,22,93566.22,1,TRUE
gasSC_backup_pre2025,TRUE,FALSE,0.08,0.15,0.35,0.52,0.15,0.15,22178,6.4,2.94,93566.22,1,FALSE
gasSC_retire_pre2025,TRUE,FALSE,0.08,0.15,0.35,0.52,0.15,0.15,0,0,0,0,1,FALSE
gasSC_rng_post2025,TRUE,FALSE,0.08,0.15,0.35,0.038,0,0.038,22178,7.94,22,93566.22,1,TRUE
gasSC_backup_post2025,TRUE,FALSE,0.08,0.15,0.35,0.52,0.3968,0.52,22178,6.4,2.94,93566.22,1,FALSE
gasCCS_post2025,TRUE,FALSE,0.45,0.58,0.48,0.028,0,0.028,83200,6.02,2.94,96983.5,1,TRUE
gasCC_pre2025,TRUE,FALSE,0.45,0.58,0.54,0.34,0,0,16601,2.55,2.94,79078.14,1,FALSE
gasCC_ccs_pre2025,TRUE,FALSE,0.45,0.58,0.48,0.028,0,0,83200,6.02,2.94,330760.16,1,TRUE
gasCC_rng_pre2025,TRUE,FALSE,0.45,0.58,0.54,0.038,0,0,16601,7.94,22,79078.14,1,TRUE
gasCC_backup_pre2025,TRUE,FALSE,0.45,0.58,0.54,0.34,0,0,16601,2.55,2.94,79078.14,1,FALSE
gasCC_retire_pre2025,TRUE,FALSE,0.45,0.58,0.54,0.34,0,0,0,0,0,0,1,FALSE
gasCC_rng_post2025,TRUE,FALSE,0.45,0.58,0.54,0.038,0,0.038,37557,7.94,22,79078.14,1,TRUE
gasCC_backup_post2025,TRUE,FALSE,0.45,0.58,0.54,0.34,0.2168,0.34,16601,2.55,2.94,79078.14,1,FALSE
gasCC_free_post2025,TRUE,FALSE,0.45,0.58,0.54,0.34,0.2168,0.34,16601,2.55,2.94,79078.14,1,FALSE
gasCG_free_pre2025,TRUE,FALSE,0,1,0.48,0.34,0,0,16601,7.94,2.94,207103.21,1,FALSE
gasCG_free_retire_pre2025,TRUE,FALSE,0,0,0.48,0.34,0,0,0,0,0,0,1,FALSE
gasCG_restricted_pre2025,TRUE,FALSE,0,1,0.48,0.34,0,0,16601,7.94,2.94,207103.21,1,FALSE
gasCG_restricted_ccs_pre2025,TRUE,FALSE,0,1,0.48,0.028,0,0,83200,6.02,2.94,330760.16,1,TRUE
gasCG_restricted_rng_pre2025,TRUE,FALSE,0,1,0.48,0.038,0,0,16601,7.94,22,207103.21,1,TRUE
gasCG_restricted_backup_pre2025,TRUE,FALSE,0,1,0.48,0.34,0,0,16601,7.94,2.94,207103.21,1,FALSE
gasCG_restricted_retire_pre2025,TRUE,FALSE,0,0,0.48,0.34,0,0,0,0,0,0,1,FALSE
nuclear,TRUE,FALSE,0.86,0.94,0.33,0,0,0,165555,3.22,0.81,542920.57,0.6,TRUE
nuclear_SMR,TRUE,TRUE,0.86,0.94,0.33,0,0,0,129298,4.08,0.81,582249.19,1,TRUE
solar,FALSE,TRUE,,,,0,0,0,20761,0,0,95891.8,1,TRUE
storage_LI,FALSE,TRUE,0,0.17,,0,0,0,33748,0,0,158583.57,1,TRUE
storage_PH,FALSE,TRUE,0,0.3,,0,0,0,14040,1,0,78147.48,1,TRUE
wind_ons,FALSE,TRUE,,,,0,0,0,35841,0,0,126414.54,1,TRUE
wind_ofs,FALSE,TRUE,,,,0,0,0,149708,0,0,444803.08,1,TRUE
