﻿AP,Technology,2025,2030,2035,2040,2045,2050,2055,2060
Alberta.windofs,wind_ofs,0,0,0,0,0,0,0,0
British Columbia.windofs,wind_ofs,0,0,0,0,0,0,0,0
Manitoba.windofs,wind_ofs,0,0,0,0,0,0,0,0
New Brunswick.windofs,wind_ofs,0,0,0,0,0,0,0,0
Newfoundland and Labrador.windofs,wind_ofs,0,0,0,0,0,0,0,0
Nova Scotia.windofs,wind_ofs,0,0,0,0,0,0,0,0
Ontario.windofs,wind_ofs,0,0,0,0,0,0,0,0
Prince Edward Island.windofs,wind_ofs,0,0,0,0,0,0,0,0
Quebec.windofs,wind_ofs,0,0,0,0,0,0,0,0
Saskatchewan.windofs,wind_ofs,0,0,0,0,0,0,0,0
Alberta.windons,wind_ons,0,0,0,0,0,0,0,0
British Columbia.windons,wind_ons,0,0,0,0,0,0,0,0
Manitoba.windons,wind_ons,0,0,0,0,0,0,0,0
New Brunswick.windons,wind_ons,0,0,0,0,0,0,0,0
Newfoundland and Labrador.windons,wind_ons,0,0,0,0,0,0,0,0
Nova Scotia.windons,wind_ons,0,0,0,0,0,0,0,0
Ontario.windons,wind_ons,0,0,0,0,0,0,0,0
Prince Edward Island.windons,wind_ons,0,0,0,0,0,0,0,0
Quebec.windons,wind_ons,0,0,0,0,0,0,0,0
Saskatchewan.windons,wind_ons,0,0,0,0,0,0,0,0
Alberta.solar,solar,0,0,0,0,0,0,0,0
British Columbia.solar,solar,0,0,0,0,0,0,0,0
Manitoba.solar,solar,0,0,0,0,0,0,0,0
New Brunswick.solar,solar,0,0,0,0,0,0,0,0
Newfoundland and Labrador.solar,solar,0,0,0,0,0,0,0,0
Nova Scotia.solar,solar,0,0,0,0,0,0,0,0
Ontario.solar,solar,0,0,0,0,0,0,0,0
Prince Edward Island.solar,solar,0,0,0,0,0,0,0,0
Quebec.solar,solar,0,0,0,0,0,0,0,0
Saskatchewan.solar,solar,0,0,0,0,0,0,0,0
